[
  {
    "Id": 1,
    "Firstname": "Developer",
    "Lastname": "A",
    "CandidateRequests": [
      {
        "Id": 1,
        "ReferenceNumber": "1718/00001",
        "RegisterDate": "2018-04-10T00:19:46.923",
        "Status": 1,
        "School": 1
      }
    ]
  },
  {
    "Id": 2,
    "Firstname": "Developer",
    "Lastname": "B",
    "CandidateRequests": [
      {
        "Id": 2,
        "ReferenceNumber": "1718/00002",
        "RegisterDate": "2018-04-30T00:19:46.923",
        "Status": 4,
        "School": 2
      }
    ]
  },
  {
    "Id": 3,
    "Firstname": "Michiel",
    "Lastname": "Goyvaerts",
    "CandidateRequests": [
      {
        "Id": 3,
        "ReferenceNumber": "1718/00003",
        "RegisterDate": "2018-05-10T00:21:20.46",
        "Status": 1,
        "School": 1
      },
      {
        "Id": 4,
        "ReferenceNumber": "1718/00004",
        "RegisterDate": "2018-05-10T00:27:19.89",
        "Status": 2,
        "School": 1
      },
      {
        "Id": 5,
        "ReferenceNumber": "1718/00005",
        "RegisterDate": "2018-05-10T09:14:19.75",
        "Status": 1,
        "School": 1
      }
    ]
  },
  {
    "Id": 2,
    "Firstname": "Developer",
    "Lastname": "B",
    "CandidateRequests": [
      {
        "Id": 2,
        "ReferenceNumber": "1718/00002",
        "RegisterDate": "2018-04-30T00:19:46.923",
        "Status": 4,
        "School": 2
      }
    ]
  },
  {
    "Id": 3,
    "Firstname": "Michiel",
    "Lastname": "Goyvaerts",
    "CandidateRequests": [
      {
        "Id": 3,
        "ReferenceNumber": "1718/00003",
        "RegisterDate": "2018-05-10T00:21:20.46",
        "Status": 1,
        "School": 1
      },
      {
        "Id": 4,
        "ReferenceNumber": "1718/00004",
        "RegisterDate": "2018-05-10T00:27:19.89",
        "Status": 2,
        "School": 1
      },
      {
        "Id": 5,
        "ReferenceNumber": "1718/00005",
        "RegisterDate": "2018-05-10T09:14:19.75",
        "Status": 1,
        "School": 1
      }
    ]
  },
  {
    "Id": 2,
    "Firstname": "Developer",
    "Lastname": "B",
    "CandidateRequests": [
      {
        "Id": 2,
        "ReferenceNumber": "1718/00002",
        "RegisterDate": "2018-04-30T00:19:46.923",
        "Status": 4,
        "School": 2
      }
    ]
  },
  {
    "Id": 3,
    "Firstname": "Michiel",
    "Lastname": "Goyvaerts",
    "CandidateRequests": [
      {
        "Id": 3,
        "ReferenceNumber": "1718/00003",
        "RegisterDate": "2018-05-10T00:21:20.46",
        "Status": 1,
        "School": 1
      },
      {
        "Id": 4,
        "ReferenceNumber": "1718/00004",
        "RegisterDate": "2018-05-10T00:27:19.89",
        "Status": 2,
        "School": 1
      },
      {
        "Id": 5,
        "ReferenceNumber": "1718/00005",
        "RegisterDate": "2018-05-10T09:14:19.75",
        "Status": 1,
        "School": 1
      }
    ]
  }
]
